…
# 6. 如何加载程序包

安装软件包后，您就可以使用其功能了。 如果您只需要在包中偶尔使用一些函数或数据，则可以使用符号 `packagename::functionname()` 来访问它们。 例如，由于您已安装 `babynames` 包，因此可以浏览其中一个数据集。

您还记得如何查看包中包含哪些功能和数据的概述？是的，`help(package = "babynames")` 可以告诉你这个。

要访问 `babynames` 包中的 `births` 数据集，只需键入：

```r
> babynames::births
# A tibble: 119 x 2
year  births
<int>   <int>
1  1909 2718000
2  1910 2777000
3  1911 2809000
4  1912 2840000
5  1913 2869000
6  1914 2966000
7  1915 2965000
8  1916 2964000
9  1917 2944000
10  1918 2948000
# ... with 109 more rows
```

如果您将更密集地使用该软件包，那么可能值得将其加载到内存中。 最简单的方法是使用 `library()` 命令。

请注意，`install.packages()`的输入是一个字符向量，并且要求名称在引号中，而 `library()` 接受字符或名称，这使您可以编写没有引号的包名称。

在此之后，您不再需要 `package::function()` 表示法，并且您可以像其他任何 R 基本函数或数据一样直接访问其功能：

```r
> library(babynames)
> births
# A tibble: 119 x 2
year  births
<int>   <int>
1  1909 2718000
2  1910 2777000
3  1911 2809000
4  1912 2840000
5  1913 2869000
6  1914 2966000
7  1915 2965000
8  1916 2964000
9  1917 2944000
10  1918 2948000
# ... with 109 more rows
```
…
